Data Wrangling with R
…
```r
select(gapminder, year, country, lifeExp)
```

```
# A tibble: 1,704 x 3
    year country     lifeExp
   <dbl> <chr>         <dbl>
 1  1952 Afghanistan    28.8
 2  1957 Afghanistan    30.3
 3  1962 Afghanistan    32.0
 4  1967 Afghanistan    34.0
 5  1972 Afghanistan    36.1
 6  1977 Afghanistan    38.4
 7  1982 Afghanistan    39.9
 8  1987 Afghanistan    40.8
 9  1992 Afghanistan    41.7
10  1997 Afghanistan    41.8
# ... with 1,694 more rows
```
…
